…
`org` argument could accept fullname or shortname of specific organism. For example, we could 

use common name: `human/hs/hg` to describe human.


```r
library(genekitr)
data(geneList)
id = names(geneList)[1:100]
head(id)
#> [1] "2847"   "148145" "1591"   "2903"   "26045"  "10268"
ginfo = genInfo(id, org = 'human')
dplyr::as_tibble(ginfo)
#> # A tibble: 100 × 21
#>    input_id symbol    ensembl  uniprot  chr   start end   width strand gene_name ncbi_alias ensembl_alias gc_content gene_biotype
#>    <ord>    <chr>     <chr>    <chr>    <chr> <chr> <chr> <chr> <chr>  <chr>     <chr>      <chr>         <chr>      <chr>       
#>  1 2847     MCHR1     ENSG000… Q99705;… 22    4067… 4068… 4065  1      melanin … GPR24; MC… GPR24; MCH1R… 55.82      protein_cod…
#>  2 148145   LINC00906 ENSG000… <NA>     19    2888… 2897… 87445 1      long int… <NA>       <NA>          45.05      lncRNA      
#>  3 1591     CYP24A1   ENSG000… Q07973   20    5415… 5417… 20541 -1     cytochro… CP24; CYP… CP24; CYP24;… 43.37      protein_cod…
#>  4 2903     GRIN2A    ENSG000… Q12879;… 16    9753… 1018… 4295… -1     glutamat… EPND; FES… GluN2A; NMDA… 42.06      protein_cod…
#>  5 26045    LRRTM2    ENSG000… O43300;… 5     1388… 1388… 6448  -1     leucine … <NA>       KIAA0416      38.26      protein_cod…
#>  6 10268    RAMP3     ENSG000… O60896;… 7     4515… 4518… 28512 1      receptor… <NA>       <NA>          51.29      protein_cod…
#>  7 114      ADCY8     ENSG000… P40145;… 8     1307… 1310… 2606… -1     adenylat… AC8; ADCY… AC8; ADCY3; … 40.42      protein_cod…
#>  8 79805    VASH2     ENSG000… Q86V25;… 1     2129… 2129… 41518 1      vasohibi… <NA>       FLJ12505      48.23      protein_cod…
#>  9 6563     SLC14A1   ENSG000… Q13336;… 18    4568… 4575… 65496 1      solute c… HUT11; Hs… HsT1341; JK;… 43.44      protein_cod…
#> 10 6355     CCL8      ENSG000… P80075;… 17    3431… 3432… 1968  1      C-C moti… HC14; MCP… HC14; MCP-2;… 44.16      protein_cod…
#> # … with 90 more rows, and 7 more variables: transcript_count <chr>, hgnc_id <chr>, omim <chr>, ccds <chr>, reactome <chr>,
#> #   ucsc <chr>, mirbase_id <chr>
```
…
